{
  "a": "Stretching",
  "b": "Cardio",
  "c": "Abs",
  "d": "Hamstring",
  "e": "Thigh",
  "f": "Forearms",
  "g": "Triceps",
  "h": "Chest",
  "i": "Posture",
  "j": "Wrist",
  "k": "Butt",
  "l": "Neck",
  "m": "Calves",
  "n": "Eyes"
}