{
  "Stretching": [
    {
      "id": "a1",
      "Title": "Standing Hamstring Stretch",
      "Description": "It is a great exercise to stretch your hamstrings (rear-thigh muscles) and your lower back.",
      "Type": "Standing",
      "Sets": 3,
      "Reps": 20,
      "RepTime": 30,
      "BreakTime":30,
      "Gif": "https://177d01fbswx3jjl1t20gdr8j-wpengine.netdna-ssl.com/wp-content/uploads/2018/08/Standing-Hamstring-Stretch_resized.gif",
      "Instructions": [
        "Stand tall with your left foot a few inches in front of your right foot and your left toes lifted.",
        "Bend your right knee slightly and pull your abdominals gently inward.",
        "Lean forward from your hips, and rest both palms on top of your right thigh for balance and support.",
        "Keep your shoulders down and relaxed; don’t round your lower back.",
        "Repeat the stretch with your right leg forward."
      ]
    },
    {
      "id": "a2",

      "Title": "Standing Side Stretch",
      "Description": "It allows you to stretch your back and side muscles to help maintain good flexibility. You will also engage the abdominal muscles in stabilizing your torso.",
      "Type": "Standing",
      "Sets": 3,
      "Reps": 20,
      "RepTime": 30,
      "BreakTime": 30,
      "Gif": "https://www.sheknows.com/wp-content/uploads/2018/08/vv7a9gdonpr46ocl7vk4.gif",
      "Instructions": [
        "Stand with your feet together and your arms straight overhead.",
        "Clasp your hands together, with your fingers interlaced and pointer fingers extended. Inhale as you reach upward.",
        "Breathe out as you bend your upper body to the right. Take five slow breaths. Slowly return to the center.",
        "Repeat on the left side."
      ]
    },
    {
      "id": "a3",
      "Title": "Butterfly Stretch",
      "Description": "It is a seated groin and inner thigh stretch that targets those areas. It is a great stretch for athletes who play field or court sports, runners, and anyone who has tight hips or a history of groin injuries.",
      "Type": "Sitting",
      "Sets": 3,
      "Reps": 20,
      "RepTime": 30,
      "BreakTime": 30,
      "Gif": "https://d1b3liscmludba.cloudfront.net/images/exercises/1188426700_0703090071.gif",
      "Instructions": [
        "Sit down on the floor or ground with your legs in front of you.",
        "Bend your left knee to bring your left foot toward your groin so that its sole touches the sole of your right foot. Do same with right knee.",
        "Hold your feet with your hands and rest your elbows on your knees.",
        "Hold the stretch for 20 to 30 seconds."
      ]
    },
    {
      "id": "a4",

      "Title": "Seated Shoulder Squeeze",
      "Description": "It relieves poor posture and releases tension in the upper back. Additionally, you can improve your posture, especially if you sit in front of the computer for a long time",
      "Type": "Sitting",
      "Sets": 3,
      "Reps": 20,
      "RepTime": 30,
      "BreakTime": 30,
      "Gif": "https://media.self.com/photos/5a305dbc2323e96043af7dad/master/w_400%2Cc_limit/2_11self.gif",
      "Instructions": [
        "Sit on the floor, chair or stability ball with knees bent, and feet flat.",
        "Clasp hands together behind the lower back.",
        "Straighten arms, while squeezing shoulders blades together.",
        "Hold a few seconds then release, and keep repeating."
      ]
    },
    {
      "id": "a5",

      "Title": "Lunging Hip Flexor Stretch",
      "Description": "It helps stretch tight hip flexors, which many have from sitting too much, running, or cycling. standing lunges also challenge and strengthen your core and lower-back muscles.",
      "Type": "Sitting",
      "Sets": 3,
      "Reps": 20,
      "RepTime": 30,
      "BreakTime": 30,
      "Gif": "https://media3.giphy.com/media/629rg7lnzlkdWP1tah/giphy.gif",
      "Instructions": [
        "Kneel on your left knee. Place your right foot flat on the floor in front of you, knee bent.",
        "Lean forward, stretching your left hip toward the floor.",
        "Squeeze your butt; this will allow you to stretch your hip flexor even more.",
        "Hold for 30 seconds to 2 minutes.",
        "Switch sides and repeat."
      ]
    },
    {
      "id": "a6",

      "Title": "Seated Neck Release",
      "Description": "This pose stretches the neck, hips, knees, and ankles. It also increases flexibility throughout the upper back, shoulders, and chest. Sitting upright with your spine aligned helps reduce stress and anxiety.",
      "Type": "Sitting",
      "Sets": 3,
      "Reps": 20,
      "RepTime": 30,
      "BreakTime": 30,
      "Gif": "https://media.self.com/photos/5a305dbc83ab3f54feacf74c/master/w_400%2Cc_limit/2_12self.gif",
      "Instructions": [
        "Sit on the floor in a cross-legged position or in a chair with your feet flat on the ground.",
        "Extend your right arm next to your right knee. Place your left hand on the top of your head and slowly tilt your head to the left. Apply gentle pressure with your hand to increase the stretch.",
        "To feel a deeper stretch, you can hold onto your right knee or the seat of the chair. This stabilizes the torso and allows you to isolate the stretch on the side of your neck.",
        "Hold on this side for 30 seconds, then slowly lift your head up and repeat this stretch on the other side."
      ]
    }
  ],
  "Cardio": [
    {
      "id": "b1",

      "Title": "Jumping Jacks",
      "Description": " Jumping Jacks not only help raise your heart rate, but also get you to moveyour body out of its normal plane of motion. It helps our movement become more explosive,gaining both strength and agility for sports that require multidirectional movement.",
      "Type": "Standing",
      "Sets": 3,
      "Reps": 20,
      "RepTime": 30,
      "BreakTime": 30,
      "Gif": "https://gifimage.net/wp-content/uploads/2017/12/jumping-jacks-gif-11.gif",
      "Instructions": [
        "Stand with your legs together and arms at your sides.",
        "Bend your knees slightly.",
        "Jump and spread your legs wider than shoulder-width, lifting your arms overhead.",
        "Jump to center. Repeat."
      ]
    },
    {
      "id": "b2",

      "Title": "Jogging in Place",
      "Description": "This easy-to-do exercise increases heart rate to regular fat-burning capacity. It also helps make your leg muscles and bones stronger",
      "Type": "Standing",
      "Sets": 3,
      "Reps": 20,
      "RepTime": 30,
      "BreakTime": 30,
      "Gif": "https://177d01fbswx3jjl1t20gdr8j-wpengine.netdna-ssl.com/wp-content/uploads/2018/07/Jog-in-Place-1.gif",
      "Instructions": [
        "Stand straight with your feet shoulder-width apart and face forward, opening up your chest.",
        "Start pulling your knees up and slowly land on the balls of your feet.",
        "Repeat until set is complete."
      ]
    },
    {
      "id": "b3",

      "Title": "Standing Oblique Crunch",
      "Description": "It helps to target the oblique muscles and tightens the entire side ab wall more effectively. It also improves your balance, increases strength and stability and burns more  calories",
      "Type": "Standing",
      "Sets": 3,
      "Reps": 20,
      "RepTime": 30,
      "BreakTime": 30,
      "Gif": "https://101exercise.com/wp-content/uploads/2018/12/Standing-Oblique-Crunch.gif",
      "Instructions": [
        "Stand with your feet shoulder-width apart",
        "Place your hands on the back of your head, elbows pointing outward",
        "Bend to the right, moving your right elbow down and right knee up",
        "Return to starting position",
        "Repeat on the left side"
      ]
    },
    {
      "id": "b4",

      "Title": "Bear Crawls",
      "Description": "This is an exercise to improve your performance, flexibility, strength and speed. There is a great emphasis on the shoulders and you’ll also feel the burn in your legs.  They are excellent for building strength and toning your entire body.",
      "Type": "Standing",
      "Sets": 3,
      "Reps": 20,
      "RepTime": 30,
      "BreakTime": 30,
      "Gif": "https://images.shape.mdpcdn.com/sites/shape.com/files/styles/slide/public/exercise/bear_crawl.gif",
      "Instructions": [
        "Stand with feet wide and arms by sides",
        "Fold forward and plant hands about 3 feet in front of feet",
        "Keeping hips back, bend elbows and knees slightly (almost as if you’re in downward dog)",
        "Maintain this shape as you walk hands and feet forward as fast as you can"
      ]
    },
    {
      "id": "b5",

      "Title": "Squat Jumps",
      "Description": "This exercise helps raise the  heart rate, burns calories and increase power in legs.",
      "Type": "Standing",
      "Sets": 3,
      "Reps": 20,
      "RepTime": 30,
      "BreakTime": 30,
      "Gif": "http://cdn.lowgif.com/full/146d3a077107f254-jump-squats-gif-www-imgkid-com-the-image-kid-has-it.gif",
      "Instructions": [
        "Start with your feet shoulder-width apart",
        "Bend your knees and lower into a squat",
        "Swing your arms back",
        "Quickly swing your arms upward and jump",
        "Land gently back in a squat",
        "Repeat"
      ]
    },
    {
      "id": "b6",

      "Title": "Mountain Climbers",
      "Description": "A great explosive bodyweight exercise, mountain climbers help to strengthen your abs and lower body. ",
      "Type": "Standing",
      "Sets": 3,
      "Reps": 20,
      "RepTime": 30,
      "BreakTime": 30,
      "Gif": "https://gifimage.net/wp-content/uploads/2017/10/mountain-climbers-gif-4.gif",
      "Instructions": [
        "Start in a plank with your hands under your shoulders and your body straight.",
        "Flatten your back and brace your core.",
        "Lift your right knee toward your chest.",
        "Quickly switch, moving your right knee out and lifting your left knee in.",
        "Continue alternating legs."
      ]
    }
  ],
  "Abs": [
    {
      "id": "c1",

      "Title": "Abdominal Crunch",
      "Description": "A strong back and abs are the foundation of all your daily movements, stability as well as performance in sports.",
      "Type": "Lying",
      "Sets": 3,
      "Reps": 10,
      "RepTime": 10,
      "BreakTime": 30,
      "Gif": "https://www.verywellfit.com/thmb/whDpde2-gOI6eCdlaXKgKSAsZao=/1500x1000/filters:fill(FFDB5D,1)/Verywell-1-2696610-AbdominalCrunch01-1853copy-599463c4d088c00013e2cad9.gif",
      "Instructions": [
        "Lie down on the floor on your back and bend your knees, placing your hands behind your head or across your chest. Support your neck without taking away work from your abs.",
        "Pull your belly button towards your spine in preparation for the movement.",
        "Slowly contract your abdominals, bringing your shoulder blades about 1 or 2 inches off the floor.",
        "Exhale as you come up and keep your neck straight, chin up.",
        "Hold at the top of the movement for a few seconds, breathing continuously.",
        "Slowly lower back down, but don't relax all the way."
      ]
    },
    {
      "id": "c2",

      "Title": "Hip Lift",
      "Description": "It will help improve your posture and be better able to stabilize your movements. It will help with sports performance as well as in daily life.",
      "Type": "Lying",
      "Sets": 3,
      "Reps": 10,
      "RepTime": 10,
      "BreakTime": 30,
      "Gif": "https://www.verywellfit.com/thmb/WczjrI9RfpF2bFyP4GlSl_Zddjc=/1500x0/filters:no_upscale():max_bytes(150000):strip_icc():format(webp)/Fitness_Gif-1500x1000_reverse-crunch-5939a6933df78c537ba31620.gif",
      "Instructions": [
        "Pull your navel in toward your spine. Inhale.",
        "Exhale as you lift your hips a few inches off the floor, keeping your legs pointed straight up. Your hips should leave the floor as you push your legs up toward the ceiling. Really pull in the lower abdominal muscles during the lift. Don't lift your head during the lift, but keep it resting on the floor.",
        "Slowly lower your hips back to the floor, inhaling as you do. Your legs return to the starting position, in the air with your knees aligned with your hips. Your legs can be straight or knees bent.",
        "At the end of a set, gently return your legs to the floor."
      ]
    },
    {
      "id": "c3",

      "Title": "Bird Dog",
      "Description": "This exercise strengthens your abdominals, your lower back, butt, and thighs",
      "Type": "Lying",
      "Sets": 3,
      "Reps": 10,
      "RepTime": 10,
      "BreakTime": 40,
      "Gif": "https://www.verywellfit.com/thmb/u2HMNndNVHS4xxvSrW69pme1LZ8=/1500x0/filters:no_upscale():max_bytes(150000):strip_icc():format(webp)/Verywell-05-2704746-Reach01-606copy-599d972d0d327a0011c6da1e.gif",
      "Instructions": [
        "Start on the floor, on your hands and knees, with your hands firmly placed about shoulder-width apart.",
        "Tighten your stomach muscles.",
        "Raise one leg off the floor and hold it straight out behind you. Be careful not to let one hip drop lower than the other, so you don't twist your trunk.",
        "Once you feel stable with your leg raised, raise your opposite arm straight out in front of you at the same time.",
        "Hold, then lower your leg and arm.",
        "Switch to the other leg and arm"
      ]
    }
  ],
  "Hamstring": [
    {
      "id": "d1",

      "Title": "Glute Bridge",
      "Description": "You should feel the burn in your glutes and your hamstrings if you’re doing it correctly.",
      "Type": "Lying",
      "Sets": 1,
      "Reps": 15,
      "RepTime": 10,
      "BreakTime": 5,
      "Gif": "https://i.pinimg.com/originals/2c/57/d3/2c57d3d4b6b3bf0cf12187d49f07d8b9.gif",
      "Instructions": [
        " Lie on your back with your knees bent, feet on the floor 12 to 16 inches from your butt",
        "Brace your core, then press into your heels and squeeze your glutes to raise your hips toward the ceiling",
        "Hold the position for two seconds before lowering to start",
        "That's one rep"
      ]
    },
    {
      "id": "d2",

      "Title": "Reverse Plank",
      "Description": "It's especially good for the muscles in your lower back, your hamstrings and your glutes.",
      "Type": "Sitting",
      "Sets": 1,
      "Reps": 15,
      "RepTime": 10,
      "BreakTime": 5,
      "Gif": "https://imagesvc.meredithcorp.io/v3/mm/gif?url=https%3A%2F%2Fstatic.onecms.io%2Fwp-content%2Fuploads%2Fsites%2F12%2F2019%2F12%2F2-reverse-plank.gif",
      "Instructions": [
        " Sit on your mat and place your hands on the ground, underneath your shoulders",
        " Press into your hands, stretch your legs out straight, and lift your hips into the air",
        " Your body should form a straight line from feet to torso",
        " Keep your hips raised for three seconds, then lower back to the ground",
        " That's one rep"
      ]
    },
    {
      "id": "d3",

      "Title": "Crabwalk",
      "Description": "Crab walk is an excellent workout that focuses on the posterior end of the gluteus muscles. Women especially the ones that are helpless with obstinate fat on the arms, thighs, buttocks and abdomen region ",
      "Type": "Sitting",
      "Sets": 1,
      "Reps": 15,
      "RepTime": 30,
      "BreakTime": 5,
      "Gif": "https://hips.hearstapps.com/hmg-prod.s3.amazonaws.com/images/workouts/2016/08/crabwalk-1472069628.gif",
      "Instructions": [
        " Sit with your knees bent and your feet flat on the floor. ",
        " Position your palms down next to either side of your butt",
        " Push your hands and feet into the floor and raise your torso and thighs a few inches so your butt is hovering above the ground",
        " Take a step forward, simultaneously moving your right hand and left foot",
        " Repeat with your left hand and right foot.",
        " That's one rep",
        "  Continue alternating without allowing your butt to drop "
      ]
    }
  ],
  "Thigh": [
    {
      "id": "e1",

      "Title": "Single Leg Circle",
      "Description": "Along with the core, single leg circle strengthens the quadriceps and hamstrings. ",
      "Type": "Lying",
      "Sets": 2,
      "Reps": 5,
      "RepTime": 90,
      "BreakTime": 10,
      "Gif": "https://www.verywellfit.com/thmb/CoxBkSBw0UmVtkrJ6xlwW4GzJ7o=/1500x844/smart/filters:no_upscale()/Verywell-04-2704611-OneLegCirclecopy-5991e00703f4020011a7c6bb.gif",
      "Instructions": [
        " Lie back on the mat with your arms by your sides and your palms facing down.",
        "Begin by pointing with your left foot, as if reaching out with your toes toward the ceiling, and rotate your leg slightly outward.",
        "Inhale, and trace a circle on the ceiling with your left leg, moving your whole leg, but keeping your hips still. Don't lift your left hip off the floor.",
        "Trace the circle on the ceiling 5 times in a clockwise direction. Repeat in a counter-clockwise direction.",
        "Switch legs and repeat 5 times"
      ]
    },
    {
      "id": "e2",

      "Title": "Side Lunges",
      "Description": "Side lunges, also known as lateral lunges, can help you increase flexibility and strengthen your thigh muscles. ",
      "Type": "Standing",
      "Sets": 2,
      "Reps": 10,
      "RepTime": 15,
      "BreakTime": 0,
      "Gif": "https://thumbs.gfycat.com/AcidicGivingDaddylonglegs-small.gif",
      "Instructions": [
        " Stand straight with your legs wider than shoulder-width apart.",
        " Bend your right knee, push your weight to the right, and lower your hips. Make sure your back is in line with your neck. Lean a little forward to keep your back straight",
        " Pause for a moment and get back to the starting position.",
        " Do the same on your left side.",
        " That's one rep"
      ]
    },
    {
      "id": "e3",

      "Title": "Plank Jacks",
      "Description": "Plank jacks are a combined cardio and core-strengthening exercise. ",
      "Type": "Lying",
      "Sets": 2,
      "Reps": 20,
      "RepTime": 10,
      "BreakTime": 0,
      "Gif": "https://media2.popsugar-assets.com/files/thumbor/psvNL1d4rpsXGtBHpB9wODbAM7A=/fit-in/2048xorig/filters:format(gif)/2016/04/29/909/n/1922398/8a0b7913bd7d4ec3_PlankJack.gif",
      "Instructions": [
        " Get into a plank pose, engage your core, make sure your elbows are right below your shoulders.",
        " Hop and place your feet wider than shoulder-width apart",
        " Hop again and place your feet close together."
      ]
    }
  ],
  "Forearms": [
    {
      "id": "f1",

      "Title": "Crab Walk",
      "Description": "Crab Walk is an intense upper body and core exercise that uses your own bodyweight for resistance. Learning how to do crab walk will help you burn fat and tone your forearms, shoulders, core, legs and hamstrings!",
      "Type": "Lying",
      "Sets": 3,
      "Reps": 10,
      "RepTime": 30,
      "BreakTime": 30,
      "Gif": "https://media1.popsugar-assets.com/files/thumbor/qy4w_e6sHDqLCTIboE0i1YMqz2A/fit-in/1024x1024/filters:format_auto-!!-:strip_icc-!!-/2018/07/05/865/n/1922729/tmp_DXoZRj_1d5613e74cecc51c_IMB_QDj9Hk.GIF",
      "Instructions": [
        "Begin by sitting on the floor with your feet hip-distance apart in front of you and your arms behind your back with fingers facing hips.",
        "Lift hips off the floor and tighten your abs.",
        "Start walking forward by moving your left hand followed by your right foot; and then your right hand followed by your left foot.",
        "Walk four or more steps as space allows, then walk back. Continue back and forth for desired amount of time."
      ]
    },
    {
      "id": "f2",

      "Title": "Diamond Push-up",
      "Description": "Diamond push-ups are the perfect exercise for building the size and strength of your triceps, and they also have major benefits for your chest and shoulders.",
      "Type": "Lying",
      "Sets": 3,
      "Reps": 10,
      "RepTime": 20,
      "BreakTime": 30,
      "Gif": "https://media.self.com/photos/5c41fa45a9cd1e7eb7fd0f2b/master/w_1600%2Cc_limit/diamond-push-up-Amanda_079.gif",
      "Instructions": [
        "Start in a high plank with your palms flat, hands shoulder-width apart, shoulders stacked directly above your wrists, legs extended behind you, and your core and glutes engaged.",
        "Walk your hands together so that your thumbs and forefingers form a triangle.",
        "Bend your elbows to lower your chest toward the floor.",
        "Straighten your arms and push your body back up."
      ]
    },
    {
      "id": "f3",

      "Title": "Pushups",
      "Description": "The pushup is the exercise that builds both upper-body and core strength. Done properly, it is a compound exercise that uses muscles in the chest, forearms, triceps, back, abs, and even the legs.",
      "Type": "Lying",
      "Sets": 3,
      "Reps": "12-15",
      "RepTime": 60,
      "BreakTime": 30,
      "Gif": "https://www.verywellfit.com/thmb/G_PLH6g6WFNoNbyCYOAmnt1HEUY=/1500x1000/filters:fill(FFDB5D,1)/Verywell-42-3498282-Pushup01-1596-5994a0f8519de20010b3bdd3.gif",
      "Instructions": [
        "Get on the floor on all fours, positioning your hands slightly wider than your shoulders.",
        "Extend your legs back so that you are balanced on your hands and toes.",
        "Keep your body in a straight line from head to toe without sagging in the middle or arching your back.",
        "Before you begin any movement, contract your abs and tighten your core by pulling your belly button toward your spine.",
        "Inhale as you slowly bend your elbows and lower yourself until your elbows are at a 90-degree angle.",
        "Exhale as you begin contracting your chest muscles and pushing back up through your hands to the start position. "
      ]
    }
  ],
  "Triceps": [
    {
      "id": "g1",

      "Title": "Triceps Dips",
      "Description": "It's one of those retro gym moves that gets the job done! Tone the backs of your arms with classic triceps dips. You can also do these on a chair..",
      "Type": "Lying",
      "Sets": 3,
      "Reps": 10,
      "RepTime": 25,
      "BreakTime": 30,
      "Gif": "https://media.giphy.com/media/13HOBYXe87LjvW/giphy.gif",
      "Instructions": [
        "Position your hands , shoulder width apart on the floor or on a secured bench or stable chair.",
        "Move your booty in front of the bench with your legs out in front of you and feet placed about hip width apart on the floor.",
        "Straighten your arms and keep a little bend in your elbows in order to always keep tension on your triceps and off your elbow joints.",
        "Now slowly bend at your elbows and lower your upper body toward the floor until your arms are at about a 90-degree angle. Be sure to keep your back close to the bench.",
        "Once you reach the bottom of the movement, slowly press off with your hands, and push yourself straight back up to the starting position."
      ]
    },
    {
      "id": "g2",

      "Title": "Triceps Bow",
      "Description": "Triceps Bow are excellent for building the size and strength of your triceps, and they also have major benefits for your chest and shoulders",
      "Type": "Lying",
      "Sets": 3,
      "Reps": 10,
      "RepTime": 20,
      "BreakTime": 30,
      "Gif": "https://d2z0k43lzfi12d.cloudfront.net/blog/vcdn295/wp-content/uploads/2017/01/triceps_bow.gif",
      "Instructions": [
        "Start in a high plank with your palms flat, hands shoulder apart, wrists stacked directly below your head, legs extended behind you, and your core and glutes engaged.",
        "Bend your  to lower your chest toward the floor.",
        "Straighten your arms and push your body back up."
      ]
    },
    {
      "id": "g3",

      "Title": "Diamond Push-up",
      "Description": "Diamond push-ups are the perfect exercise for building the size and strength of your triceps, and they also have major benefits for your chest and shoulders.",
      "Type": "Lying",
      "Sets": 3,
      "Reps": 10,
      "RepTime": 20,
      "BreakTime": 30,
      "Gif": "https://media.self.com/photos/5c41fa45a9cd1e7eb7fd0f2b/master/w_1600%2Cc_limit/diamond-push-up-Amanda_079.gif",
      "Instructions": [
        "Start in a high plank with your palms flat, hands shoulder-width apart, shoulders stacked directly above your wrists, legs extended behind you, and your core and glutes engaged.",
        "Walk your hands together so that your thumbs and forefingers form a triangle.",
        "Bend your elbows to lower your chest toward the floor.",
        "Straighten your arms and push your body back up."
      ]
    }
  ],
  "Chest": [
    {
      "id": "h1",

      "Title": "Pushups",
      "Description": "The pushup is the exercise that builds both upper-body and core strength. Done properly, it is a compound exercise that uses muscles in the chest, shoulders, triceps, back, abs, and even the legs.",
      "Type": "Lying",
      "Sets": 3,
      "Reps": "12-15",
      "RepTime": 60,
      "BreakTime": 30,
      "Gif": "https://www.verywellfit.com/thmb/G_PLH6g6WFNoNbyCYOAmnt1HEUY=/1500x1000/filters:fill(FFDB5D,1)/Verywell-42-3498282-Pushup01-1596-5994a0f8519de20010b3bdd3.gif",
      "Instructions": [
        "Get on the floor on all fours, positioning your hands slightly wider than your shoulders.",
        "Extend your legs back so that you are balanced on your hands and toes.",
        "Keep your body in a straight line from head to toe without sagging in the middle or arching your back.",
        "Before you begin any movement, contract your abs and tighten your core by pulling your belly button toward your spine.",
        "Inhale as you slowly bend your elbows and lower yourself until your elbows are at a 90-degree angle.",
        "Exhale as you begin contracting your chest muscles and pushing back up through your hands to the start position. "
      ]
    },
    {
      "id": "h2",

      "Title": "Inclined Pushups",
      "Description": "This variation of pushups targets the main muscles of the chest, it also engages the shoulders(deltoid) and arms(triceps). They are the perfect compromise if you find that a standard pushup is too difficult ",
      "Type": "Lying",
      "Sets": 3,
      "Reps": "12-15",
      "RepTime": 60,
      "BreakTime": 30,
      "Gif": "https://www.verywellfit.com/thmb/JGdRP8hzrlafuO9VTVCfsQ4HqPE=/768x0/filters:no_upscale():max_bytes(150000):strip_icc():format(webp)/90-3120038--Incline-PushupsGIF-d321334ec54849539010832028d5635a.gif ",
      "Instructions": [
        "Come onto your hands and knees with your weight balanced evenly between all four points.",
        "Place your hands on the edge of the bench just slightly wider than shoulder width. Align your feet so that your arms and body are completely straight.",
        "Bend your elbows to slowly lower your chest to the edge of the bench while inhaling. Keep your body straight and rigid throughout the movement.",
        "Push your body away from the bench until your elbows are extended, but not locked. Exhale as you push up.",
        "Keep going with slow, steady repetitions."
      ]
    },
    {
      "id": "h3",

      "Title": "Declined Pushups",
      "Description": "The decline push up is an advanced upper body exercise that targets the muscles of the chest, shoulders, back, and arms.",
      "Type": "Lying",
      "Sets": 3,
      "Reps": "12-15",
      "RepTime": 60,
      "BreakTime": 30,
      "Gif": "https://www.verywellfit.com/thmb/-idT8oQ7lmPWk2yoDnAW_6mMSgA=/768x0/filters:no_upscale():max_bytes(150000):strip_icc():format(webp)/91-3120037--Decline-PushupsGIF-eb1210abbdb04bbf94a05aafb644b24f.gif",
      "Instructions": [
        "Kneel down with your back to the bench which can be as low as an inch or two or as high as 1 to 2 feet.",
        "Put your hands on the floor, shoulders over your wrists and elbows at 45 degrees. Place your feet on top of the bench.",
        "Brace your core, glutes, and quads. Bend your elbows and lower your chest to the floor while inhaling, keeping your back and neck straight.",
        "Push into the floor to return to starting position,exhaling and extending your elbows."
      ]
    }
  ],
  "Posture": [
    {
      "id": "i1",

      "Title": "Child's Pose",
      "Description": "This resting pose stretches and lengthens your spine, glutes, and hamstrings. It helps to release tension in your lower back and neck.",
      "Type": "Lying",
      "Sets": 3,
      "Reps": 1,
      "RepTime": 60,
      "BreakTime": 20,
      "Gif": "https://www.verywellfit.com/thmb/EjwZhV4bRMIU7A-cWYGaVRMhyIE=/1500x1000/filters:no_upscale():max_bytes(150000):strip_icc()/Verywell-04-2704746-ChildsPosecopy-598b7d0b68e1a2001183ad9b.gif",
      "Instructions": [
        "Sit on your shinbones with your knees together, your big toes touching, and your heels splayed out to the side.",
        "Fold forward at your hips and walk your hands out in front of you.",
        "Sink your hips back down toward your feet. If your thighs won’t go all the way down, place a pillow or folded blanket under them for support.",
        "Gently place your forehead on the floor or turn your head to one side.",
        "Keep your arms extended or rest them along your body.",
        "Breathe deeply into the back of your rib cage and waist.",
        "Relax in this pose while continuing to breathe deeply."
      ]
    },
    {
      "id": "i2",

      "Title": "Cat Cow",
      "Description": "Practicing cat cow stretches and massages your spine. It also helps to relieve tension in your torso, shoulders, and neck while promoting blood circulation.",
      "Type": "Lying",
      "Sets": 3,
      "Reps": 10,
      "RepTime": 10,
      "BreakTime": 30,
      "Gif": "https://i.pinimg.com/originals/eb/d8/aa/ebd8aa25ff52b9bb0ce0c8c5376e7089.gif",
      "Instructions": [
        "Come onto your hands and knees with your weight balanced evenly between all four points.",
        "Inhale to look up, dropping your abdomen down toward the ground as you extend your spine.",
        "Exhale and arch your spine toward the ceiling and tuck your chin into your chest.",
        "Repeat the movement the number of times specified"
      ]
    },
    {
      "id": "i3",

      "Title": "Chest Opener",
      "Description": "This exercise allows you to open and stretch your chest. This is especially useful if you spend most of your day sitting, which tends to make your chest move inward. .",
      "Type": "Standing",
      "Sets": 3,
      "Reps": 5,
      "RepTime": 5,
      "BreakTime": 20,
      "Gif": "https://thumbs.gfycat.com/JealousAcrobaticHochstettersfrog-size_restricted.gif",
      "Instructions": [
        "Stand with your feet about hip-width apart.",
        "Bring your arms behind you and interlace your fingers with your palms pressing together. Grasp a towel if your hands don’t reach each other.",
        "Inhale as you lift your chest toward the ceiling and bring your hands toward the floor.",
        "Breathe deeply as you hold this pose for 5 breaths."
      ]
    }
  ],
  "Wrist": [
    {
      "id": "j1",

      "Title": "Hand Spider Pushup",
      "Description": "This stretches the palmar fascia, carpal tunnel structures, and median nerve. It is so simple even your officemates won't notice you doing it, so you don’t have any excuses for not trying it.",
      "Type": "Sitting",
      "Sets": 3,
      "Reps": 20,
      "RepTime": 5,
      "BreakTime": 10,
      "Gif": "https://i0.wp.com/images-prod.healthline.com/hlcmsresource/images/topic_centers/Fitness-Exercise/648x364_3_Wrist_Exercises_to_Prevent_Carpal_Tunnel_EXERCISE_1.gif?w=1155&h=764",
      "Instructions": [
        "Start with your hands together in prayer position.",
        "Spread fingers apart as far you can, then “steeple” the fingers by separating palms of hands, but keeping fingers together."
      ]
    },
    {
      "id": "j2",

      "Title": "The shake",
      "Description": "Do this to keep flexor muscles of your hands and its median nerve from getting cramped and tight during the day.",
      "Type": "Sitting",
      "Sets": 3,
      "Reps": 20,
      "RepTime": 3,
      "BreakTime": 10,
      "Gif": "https://www.isgnedir.com/wp-content/uploads/2018/07/karpal-tunel-egzersiz-2.gif",
      "Instructions": [
        "This is as straightforward as it sounds: shake hands like you’ve just washed them and are trying to air dry them."
      ]
    },
    {
      "id": "j3",

      "Title": "Stretch armstrong",
      "Description": "After a few weeks of doing this multiple times a day, you’ll notice significant improvement in your wrist’s flexibility.",
      "Type": "Sitting",
      "Sets": 3,
      "Reps": 2,
      "RepTime": 10,
      "BreakTime": 20,
      "Gif": "https://www.isgnedir.com/wp-content/uploads/2018/07/karpal-tunel-egzersiz-3.gif",
      "Instructions": [
        "Place one arm straight out in front of you, elbow straight, with your wrist extended and fingers facing the floor.",
        "Spread your fingers slightly and use your other hand to apply gentle pressure to the downward-facing hand, stretching your wrist and fingers as far as you’re able.",
        "When you reach your maximum point of flexibility, hold this position",
        "Switch hands and repeat."
      ]
    }
  ],
  "Butt": [
    {
      "id": "k1",

      "Title": "Plie Squat",
      "Description": "plié squats add strength and flexibility in your glutes, quads, and hips.",
      "Type": "Standing",
      "Sets": 3,
      "Reps": 15,
      "RepTime": 10,
      "BreakTime": 2,
      "Gif": "https://s1.r29static.com/bin/entry/d00/x/2097239/image.gif",
      "Instructions": [
        "Start standing with feet wider than shoulders and turned out so inner thighs face forward, hands clasped in front of chest",
        " Tuck pelvis under and lower down into a wide-legged squat aiming to get thighs parallel to floor",
        "Return back to start",
        "That's one rep. "
      ]
    },
    {
      "id": "k2",

      "Title": "Fire Hydrant",
      "Description": "Fire hydrants is a great exercise which engages the external parts of the buttocks and thighs. ",
      "Type": "Lying",
      "Sets": 2,
      "Reps": 15,
      "RepTime": 10,
      "BreakTime": 5,
      "Gif": "https://media0.giphy.com/media/qxqSDRxKUwltC/source.gif",
      "Instructions": [
        " Start on all fours on the floor with wrists under shoulders and knees under hips",
        " Keeping hips level and right leg bent at 90 degrees, lift right knee out to side until thigh is parallel to floor",
        " Return to start",
        " That's one rep",
        " Do 1 set for each side "
      ]
    },
    {
      "id": "k3",

      "Title": "Squat Jump",
      "Description": "This exercise uses your lower body muscles as well as your core: abdominals, glutes, hamstrings, and lower back. ",
      "Type": "Standing",
      "Sets": 2,
      "Reps": 15,
      "RepTime": 7,
      "BreakTime": 2,
      "Gif": "https://i.pinimg.com/originals/80/fd/6d/80fd6dbd3584ddf8b3c681147e851d81.gif",
      "Instructions": [
        " Start in a squat with feet wider than shoulders, thighs parallel to floor, and hands clasped in front of chest ",
        " Swing arms behind body as you jump into air, straightening legs.",
        "Softly land back in start position",
        " That's one rep"
      ]
    }
  ],
  "Neck": [
    {
      "id": "l1",

      "Title": "Flexion Stretch: Chin to Chest ",
      "Description": "It helps to improve your ability to move your neck fully and with little or no pain. It helps to release tension in your lower back and neck.",
      "Type": "Any",
      "Sets": 1,
      "Reps": 5,
      "RepTime": 120,
      "BreakTime": 30,
      "Gif": "https://www.verywellhealth.com/thmb/PT3qu--7y9Fni_m_h9ZAf-7EFUw=/1500x1000/filters:no_upscale():max_bytes(150000):strip_icc()/Verywell-23-2696365-ChinToChest01-1897-599334f522fa3a0010622b87.gif",
      "Instructions": [
        "Gently bend your head forward while bringing your chin toward your chest.",
        "Stop when a stretch is felt in the back of your neck.",
        "Hold position for 20 seconds.",
        "Return to starting position."
      ]
    },
    {
      "id": "l2",

      "Title": "Rotation: Side to Side ",
      "Description": "It also helps in improving the neck movement and Stretching your neck have a positive impact on your pain, posture, and overall mobility.",
      "Type": "Any",
      "Sets": 1,
      "Reps": 5,
      "RepTime": 300,
      "BreakTime": 30,
      "Gif": "https://www.verywellhealth.com/thmb/taKjtLDviSbEU0yQnLvE2GGry2M=/1500x1000/filters:no_upscale():max_bytes(150000):strip_icc()/Verywell-23-2696365-SideToSide01-1908-59933a3fd088c00013cd036f.gif",
      "Instructions": [
        "Gently turn your head to the left, looking over your left shoulder.",
        "Stop when a stretch is felt in the right side of your neck.",
        "Hold position for 20 seconds.",
        "Return to starting position.",
        "Repeat it for the other side."
      ]
    },
    {
      "id": "l3",

      "Title": "Lateral Flexion: Ear to Shoulder ",
      "Description": "It also helps to release tension in neck and Stretching your neck have a positive impact on your pain, posture, and overall mobility.",
      "Type": "Lying",
      "Sets": 1,
      "Reps": 5,
      "RepTime": 10300,
      "BreakTime": 30,
      "Gif": "https://www.verywellhealth.com/thmb/hCvNLvRSRT8am5vuByRIg9owxo4=/1500x1000/filters:no_upscale():max_bytes(150000):strip_icc()/Verywell-23-2696365-EarToShoulder01-1912-59933a51d088c00013cd0562.gif",
      "Instructions": [
        "Gently bend your neck in attempts to touch your left ear to your shoulder.",
        "Stop when a stretch is felt in the right side of your neck.",
        "Hold position for 20 seconds.",
        "Return to starting position.",
        "Repeat it for the other side."
      ]
    }
  ],
  "Calves": [
    {
      "id": "m1",

      "Title": "Calf raises",
      "Description": "Calf raises will not only strengthen your muscles, but will also give definition to your lower leg, improving its appearance",
      "Type": "Standing",
      "Sets": 3,
      "Reps": 15,
      "RepTime": 15,
      "BreakTime": 20,
      "Gif": "https://media.giphy.com/media/2wXXVCek2NfkneGqz9/giphy.gif",
      "Instructions": [
        "Stand with your torso upright, your feet hip-width apart and your toes pointing forward",
        "Raise your heels off the floor and squeeze your calves.",
        "Return to the starting position, by slowly lowering your heels, and repeat"
      ]
    },
    {
      "id": "m2",

      "Title": "Single-Leg Calf Raise",
      "Description": "If you’re looking to add muscle and definition to a pair of chicken legs you can’t ignore your calves. And single calf raises are one of the great ways to work them.",
      "Type": "Standing",
      "Sets": 3,
      "Reps": 10,
      "RepTime": 10,
      "BreakTime": 30,
      "Gif": "https://im2.ezgif.com/tmp/ezgif-2-a318e57cecb5.gif",
      "Instructions": [
        "Begin by standing with your feet shoulder-width apart.",
        " Raise your left foot and bend your knee so your leg forms a 90 degree angle.",
        "Keeping your leg lifted, rise up onto the ball of your right foot.",
        "Pause at the top and squeeze your calf muscle, then lower back down to the ground."
      ]
    },
    {
      "id": "m3",

      "Title": "Downward Dog",
      "Description": "Downward-Facing Dog is a standing pose and mild inversion that builds strength while stretching the whole body.It is very effective to grow your leg muscles and calves.",
      "Type": "Lying",
      "Sets": 3,
      "Reps": 10,
      "RepTime": 10,
      "BreakTime": 40,
      "Gif": "https://im2.ezgif.com/tmp/ezgif-2-b3978c879b0f.gif",
      "Instructions": [
        "From a plank position, tuck your toes and lift your hips up and back, sinking your heels toward floor.",
        "Press your shoulders down your back and relax your neck.",
        "Spread your fingers wide on your mat with palms flat against the floor.",
        "Lift up on your right toe, and bend your right knee. Then return to start, and repeat on the other side."
      ]
    }
  ],
  "Eyes": [
    {
      "id": "n1",

      "Title": "Left Right movement",
      "Description": "This exercise relaxes your eyes and helps to make your vision sharp",
      "Sets": 3,
      "Reps": 15,
      "RepTime": 15,
      "BreakTime": 20,
      "Gif": "https://i2.wp.com/timeshood.com/wp-content/uploads/2017/09/Eye-Left-Right.gif?resize=551%2C302&ssl=1",
      "Instructions": [
        "Stand or sit upright and keep your gaze straight.",
        "Now, look to the left and try to focus on what you see.",
        "Then look right and focus on what you see.",
        "Move your eyes from side to side for 5 times and repeat this cycle for 3 times."
      ]
    },
    {
      "id": "n1",

      "Title": "Left Right movement",
      "Description": "This exercise relaxes your eyes and helps to make your vision sharp",
      "Sets": 3,
      "Reps": 15,
      "RepTime": 15,
      "BreakTime": 20,
      "Gif": "https://i2.wp.com/timeshood.com/wp-content/uploads/2017/09/Eye-Left-Right.gif?resize=551%2C302&ssl=1",
      "Instructions": [
        "Stand or sit upright and keep your gaze straight.",
        "Now, look to the left and try to focus on what you see.",
        "Then look right and focus on what you see.",
        "Move your eyes from side to side for 5 times and repeat this cycle for 3 times."
      ]
    },{
      "id": "n2",

      "Title": "Up Down movement",
      "Description": "This exercise relaxes your eyes and helps to make your vision sharp",
      "Sets": 3,
      "Reps": 15,
      "RepTime": 15,
      "BreakTime": 20,
      "Gif": "https://i2.wp.com/timeshood.com/wp-content/uploads/2017/09/Eye-Up-Down.gif?resize=551%2C302&ssl=1",
      "Instructions": [
        "Stand or sit upright and keep your gaze straight.",
        "Now, look up and try to focus on what you see.",
        "Then look down and focus on what you see.",
        "Move your eyes from up to down for 5 times and repeat this cycle for 3 times."
      ]
    },{
      "id": "n3",

      "Title": "Zig Zag movement",
      "Description": "This exercise relaxes your eyes and helps to make your vision sharp",
      "Sets": 3,
      "Reps": 15,
      "RepTime": 15,
      "BreakTime": 20,
      "Gif": "https://i2.wp.com/timeshood.com/wp-content/uploads/2017/09/Eye-Diagonal.gif?resize=551%2C302&ssl=1",
      "Instructions": [
        "Stand or sit upright and keep your gaze straight.",
        "Now, look to left-top and try to focus on what you see.",
        "Then look right-bottom and focus on what you see.",
        "Move your eyes from side to side for 5 times and repeat this cycle for 3 times."
      ]
    }
  ]
}
